<?xml version="1.0" encoding="iso-8859-1"?>
<!-- Generator: Adobe Illustrator 19.0.0, SVG Export Plug-In . SVG Version: 6.00 Build 0)  -->
<svg xmlns="http://www.w3.org/2000/svg" xmlns:xlink="http://www.w3.org/1999/xlink" version="1.1" id="Layer_1" x="0px"
     y="0px" viewBox="0 0 512 512" style="enable-background:new 0 0 512 512;" xml:space="preserve">
<rect style="fill:#82AFFF;" width="512" height="512"/>
    <g>
	<path style="fill:#F5F5F5;"
          d="M254.836,136.569l-6.801,20.392l-21.495,0.167c-1.178,0.009-1.667,1.513-0.719,2.213l17.292,12.769   l-6.484,20.495c-0.355,1.124,0.924,2.053,1.883,1.368l17.488-12.5l17.488,12.5c0.959,0.685,2.238-0.244,1.883-1.368l-6.484-20.495   l17.292-12.769c0.948-0.7,0.459-2.204-0.719-2.213l-21.495-0.167l-6.801-20.392C256.791,135.451,255.209,135.451,254.836,136.569z"/>
        <path style="fill:#F5F5F5;"
              d="M254.836,318.632l-6.801,20.392l-21.495,0.167c-1.178,0.009-1.667,1.513-0.719,2.213l17.292,12.769   l-6.484,20.495c-0.355,1.124,0.924,2.053,1.883,1.368l17.488-12.5l17.488,12.5c0.959,0.685,2.238-0.244,1.883-1.368l-6.484-20.495   l17.292-12.769c0.948-0.7,0.459-2.204-0.719-2.213l-21.495-0.167l-6.801-20.392C256.791,317.514,255.209,317.514,254.836,318.632z"/>
        <path style="fill:#F5F5F5;"
              d="M375.431,254.836l-20.392-6.801l-0.167-21.495c-0.009-1.178-1.513-1.667-2.213-0.719l-12.769,17.292   l-20.495-6.484c-1.124-0.355-2.053,0.924-1.368,1.883l12.5,17.488l-12.5,17.488c-0.685,0.959,0.244,2.238,1.368,1.883l20.495-6.484   l12.769,17.292c0.7,0.948,2.204,0.459,2.213-0.719l0.167-21.495l20.392-6.801C376.549,256.791,376.549,255.209,375.431,254.836z"/>
        <path style="fill:#F5F5F5;"
              d="M136.569,254.836l20.392-6.801l0.167-21.495c0.009-1.178,1.513-1.667,2.213-0.719l12.769,17.292   l20.495-6.484c1.124-0.355,2.053,0.924,1.368,1.883L181.473,256l12.5,17.488c0.685,0.959-0.244,2.238-1.368,1.883l-20.495-6.484   l-12.769,17.292c-0.7,0.948-2.204,0.459-2.213-0.719l-0.167-21.495l-20.392-6.801C135.451,256.791,135.451,255.209,136.569,254.836   z"/>
</g>
    <g>
</g>
    <g>
</g>
    <g>
</g>
    <g>
</g>
    <g>
</g>
    <g>
</g>
    <g>
</g>
    <g>
</g>
    <g>
</g>
    <g>
</g>
    <g>
</g>
    <g>
</g>
    <g>
</g>
    <g>
</g>
    <g>
</g>
</svg>
