<?xml version="1.0" encoding="iso-8859-1"?>
<!-- Generator: Adobe Illustrator 19.0.0, SVG Export Plug-In . SVG Version: 6.00 Build 0)  -->
<svg xmlns="http://www.w3.org/2000/svg" xmlns:xlink="http://www.w3.org/1999/xlink" version="1.1" id="Layer_1" x="0px"
     y="0px" viewBox="0 0 512 512" style="enable-background:new 0 0 512 512;" xml:space="preserve">
<rect y="336.53" style="fill:#73AF00;" width="512" height="175.47"/>
    <rect style="fill:#FF4B55;" width="512" height="175.47"/>
    <rect y="175.47" style="fill:#41479B;" width="512" height="161.05"/>
    <g>
	<rect y="175.47" style="fill:#F5F5F5;" width="512" height="26.842"/>
        <rect y="309.68" style="fill:#F5F5F5;" width="512" height="26.842"/>
</g>
    <g>
</g>
    <g>
</g>
    <g>
</g>
    <g>
</g>
    <g>
</g>
    <g>
</g>
    <g>
</g>
    <g>
</g>
    <g>
</g>
    <g>
</g>
    <g>
</g>
    <g>
</g>
    <g>
</g>
    <g>
</g>
    <g>
</g>
</svg>
