<?xml version="1.0" encoding="UTF-8"?>
<svg width="24px" height="24px" viewBox="0 0 24 24" version="1.1" xmlns="http://www.w3.org/2000/svg"
     xmlns:xlink="http://www.w3.org/1999/xlink">
    <!-- Generator: Sketch 50.2 (55047) - http://www.bohemiancoding.com/sketch -->
    <title>Stockholm-icons / Weather / Cloud-wind</title>
    <desc>Created with Sketch.</desc>
    <defs></defs>
    <g id="Stockholm-icons-/-Weather-/-Cloud-wind" stroke="none" stroke-width="1" fill="none" fill-rule="evenodd">
        <polygon id="Shape" points="0 0 24 0 24 24 0 24"></polygon>
        <path
            d="M5.74714567,11.0425758 C4.09410362,9.9740356 3,8.11478859 3,6 C3,2.6862915 5.6862915,0 9,0 C11.7957591,0 14.1449096,1.91215918 14.8109738,4.5 L17.25,4.5 C19.3210678,4.5 21,6.17893219 21,8.25 C21,10.3210678 19.3210678,12 17.25,12 L8.25,12 C7.28817895,12 6.41093178,11.6378962 5.74714567,11.0425758 Z"
            id="Combined-Shape" fill="#000000"></path>
        <path
            d="M4,21 L4,19 L17.5,19 C18.3284271,19 19,18.3284271 19,17.5 L19,17 C19,16.4477153 18.5522847,16 18,16 C17.4477153,16 17,16.4477153 17,17 L17,18 L15,18 L15,17 C15,15.3431458 16.3431458,14 18,14 C19.6568542,14 21,15.3431458 21,17 L21,17.5 C21,19.4329966 19.4329966,21 17.5,21 L4,21 Z"
            id="Path-34" fill="#000000" fill-rule="nonzero" opacity="0.3"
            transform="translate(12.500000, 17.500000) scale(1, -1) translate(-12.500000, -17.500000) "></path>
        <path
            d="M4,24 L4,22 L10.5,22 C11.3284271,22 12,21.3284271 12,20.5 L12,20 C12,19.4477153 11.5522847,19 11,19 C10.4477153,19 10,19.4477153 10,20 L10,21 L8,21 L8,20 C8,18.3431458 9.34314575,17 11,17 C12.6568542,17 14,18.3431458 14,20 L14,20.5 C14,22.4329966 12.4329966,24 10.5,24 L4,24 Z"
            id="Path-34-Copy-2" fill="#000000" fill-rule="nonzero" opacity="0.3"
            transform="translate(9.000000, 20.500000) scale(1, -1) translate(-9.000000, -20.500000) "></path>
    </g>
</svg>
